digraph D {
    rankdir=BT;
    splines=polyline;

  "Mapping" [style=filled fillcolor=yellow shape=box];
    "EFFURT" [style=filled fillcolor=yellow];
    "Surveying" [style=filled fillcolor=yellow];
  "Tourism" [style=filled fillcolor=yellow shape=box];
    "Research Tourists" [style=filled fillcolor=yellow];
  "Report" [style=filled fillcolor=yellow shape=box];
    "Distill Background" [style=filled fillcolor=yellow];
  "Project Complete" [shape=diamond];

  {rank = same; "Mapping"; "Tourism"; "Report"; "Project Complete";}

    "Not Started" [shape=box align=right]
    "In Progress" [style=filled fillcolor=yellow shape=box align=right]
    "Complete" [style=filled fillcolor=green shape=box align=right]
    {rank = same; "Not Started"; "In Progress"; "Complete";}

  "Mapping" -> "Tourism"

    "Surveying" -> "EFFURT"
    "EFFURT" -> "Experience Map"
    "EFFURT" -> "Investing Map"
    "Experience Map" -> "Physical Tourism Map"

    "Experience Map" -> "Mapping"
    "Investing Map" -> "Mapping"
    "Physical Tourism Map" -> "Testing"
    "Testing" -> "Physical Tourism Map"
    "Testing" -> "Mapping"
  
  "Tourism" -> "Report"

    "Research Tourists" -> "Research Tourism Improvements"
    "Research Tourism Improvements" -> "Tourism"
  
  "Report" -> "Project Complete"

    "Distill Background" -> "Report"
    "Distill Mapping" -> "Report"
    "Distill Tourism" -> "Report"
}